[gd_scene load_steps=2 format=2]

[ext_resource path="res://Scenes/1.jpg" type="Texture" id=1]

[node name="Win Screen" type="Sprite"]
position = Vector2( 515.454, 303.527 )
scale = Vector2( 1.698, 1.31948 )
texture = ExtResource( 1 )
