[gd_scene load_steps=3 format=2]

[ext_resource path="res://Assets/kenney_platformercharacters/PNG/Female/Poses/female_action1.png" type="Texture" id=1]

[sub_resource type="RectangleShape2D" id=1]
extents = Vector2( 72.2105, 54.8421 )

[node name="KinematicBody2D" type="KinematicBody2D"]

[node name="CollisionShape2D" type="CollisionShape2D" parent="."]
position = Vector2( 1.25269, 0.848328 )
shape = SubResource( 1 )

[node name="Sprite" type="Sprite" parent="."]
position = Vector2( 0.0505371, 1.05054 )
texture = ExtResource( 1 )
